{"linkName":"Kair-Castleton","type":"B5","AP":"","speed":0,"on":"2021-04-16T13:44:46.383Z"}

{"linkName":"Kair-Castleton","type":"B5","AP":"","speed":0,"on":"2021-04-16T14:18:44.897Z"}
{"linkName":"Kair-Castleton","type":"B5","AP":"","speed":0,"on":"2021-04-16T14:30:22.794Z"}
{"linkName":"Kair-Castleton","type":"B5","AP":"","speed":0,"on":"2021-04-16T14:30:58.316Z"}
{"linkName":"Kair-Castleton","type":"B5","AP":"","speed":0,"on":"2021-04-16T14:33:41.810Z"}
{"linkName":"Kair-Castleton","type":"B5","AP":"","speed":0,"on":"2021-04-16T14:42:33.563Z"}
{"linkName":"Kair-Castleton","type":"B5","AP":"","speed":0,"on":"2021-04-16T14:46:56.445Z"}
{"linkName":"Kair-Castleton","type":"B5","AP":"","speed":245760,"on":"2021-04-16T14:49:03.646Z"}
{"linkName":"Kair-Castleton","type":"B5","AP":"","speed":245760,"on":"2021-04-16T14:49:46.198Z"}
{"linkName":"Kair-Castleton","type":"B5","AP":"","speed":245760,"on":"2021-04-16T14:53:00.818Z"}
{"linkName":"Kair-Castleton","type":"B5","AP":"","speed":245760,"on":"2021-04-16T14:55:07.765Z"}
{"linkName":"Sootywells-WestCairnbeg","type":"B5","AP":"","speed":266240,"on":"2021-04-16T14:55:11.991Z"}
{"linkName":"Kair-Castleton","type":"B5","AP":"","speed":204800,"on":"2021-04-16T14:57:58.560Z"}
{"linkName":"Sootywells-WestCairnbeg","type":"B5","AP":"","speed":266240,"on":"2021-04-16T14:58:01.511Z"}
{"linkName":"Govanhill-Rossie","type":"B5","AP":"","speed":276480,"on":"2021-04-16T14:58:05.329Z"}
{"linkName":"AuchterTurra","type":"SNMP","AP":"","speed":1500000000,"on":"2021-08-30T23:07:39.457Z"}
{"linkName":"AuchterTurra","type":"SNMP","AP":"","speed":1500000000,"on":"2021-08-30T23:07:48.821Z"}
{"linkName":"AuchterTurra","type":"SNMP","AP":"","speed":1464843.75,"on":"2021-08-30T23:37:05.304Z"}
{"linkName":"AuchterTurra","type":"SNMP","AP":"","speed":1464843.75,"on":"2021-08-30T23:38:36.019Z"}
{"linkName":"AuchterTurra","type":"SNMP","AP":"","speed":1464843.75,"on":"2021-08-30T23:38:39.134Z"}
{"linkName":"AuchterTurra","type":"SNMP","AP":"","speed":1464843.75,"on":"2021-08-30T23:39:30.405Z"}
{"linkName":"AuchterTurra","type":"SNMP","AP":"","speed":1464843.75,"on":"2021-08-30T23:40:21.383Z"}
{"linkName":"AuchterTurra","type":"SNMP","AP":"","speed":1464843.75,"on":"2021-08-30T23:41:32.107Z"}
{"linkName":"AuchterTurra","type":"SNMP","AP":"","speed":1464843.75,"on":"2021-08-30T23:41:54.529Z"}
{"linkName":"AuchterTurra","type":"SNMP","AP":"","speed":1464843.75,"on":"2021-08-30T23:42:50.866Z"}
{"linkName":"AuchterTurra","type":"SNMP","AP":"","speed":1464843.75,"on":"2021-08-30T23:43:12.802Z"}
{"linkName":"AuchterTurra","type":"SNMP","AP":"","speed":1464843.75,"on":"2021-08-30T23:48:09.952Z"}
{"linkName":"AuchterTurra","type":"SNMP","AP":"","speed":1464843.75,"on":"2021-08-30T23:49:56.808Z"}
{"linkName":"AuchterTurra","type":"SNMP","AP":"","speed":1464843.75,"on":"2021-08-30T23:52:04.664Z"}
{"linkName":"AuchterTurra","type":"SNMP","AP":"","speed":1464843.75,"on":"2021-08-30T23:52:31.136Z"}
{"linkName":"AuchterTurra","type":"SNMP","AP":"","speed":1464843.75,"on":"2021-08-30T23:52:50.890Z"}
{"linkName":"AuchterTurra","type":"SNMP","AP":"","speed":1464843.75,"on":"2021-08-30T23:53:23.746Z"}
{"linkName":"AuchterTurra","type":"SNMP","AP":"","speed":1464843.75,"on":"2021-08-30T23:57:06.920Z"}
{"linkName":"AuchterTurra","type":"SNMP","AP":"","speed":1464843.75,"on":"2021-08-31T00:00:02.988Z"}{"linkName":"AuchterTurra","type":"SNMP","AP":"","speed":1464843.75,"on":"2021-08-31T00:01:08.339Z"}

{"linkName":"AuchterTurra","type":"SNMP","AP":"","speed":1464843.75,"on":"2021-08-31T00:02:33.870Z"}
{"linkName":"AuchterTurra","type":"SNMP","AP":"","speed":1464843.75,"on":"2021-08-31T00:05:22.151Z"}
{"linkName":"AuchterTurra","type":"SNMP","AP":"","speed":1464843.75,"on":"2021-08-31T00:05:28.170Z"}
{"linkName":"AuchterTurra","type":"SNMP","AP":"","speed":1464843.75,"on":"2021-08-31T00:05:55.775Z"}
{"linkName":"AuchterTurra","type":"SNMP","AP":"","speed":1464843.75,"on":"2021-08-31T00:06:20.555Z"}
{"linkName":"AuchterTurra","type":"SNMP","AP":"","speed":1464843.75,"on":"2021-08-31T00:06:52.537Z"}
{"linkName":"AuchterTurra","type":"SNMP","AP":"","speed":1464843.75,"on":"2021-08-31T00:07:11.822Z"}
{"linkName":"AuchterTurra","type":"SNMP","AP":"","speed":1464843.75,"on":"2021-08-31T00:08:02.039Z"}
{"linkName":"AuchterTurra","type":"SNMP","AP":"","speed":1464843.75,"on":"2021-08-31T00:08:30.680Z"}
{"linkName":"AuchterTurra","type":"SNMP","AP":"","speed":1464843.75,"on":"2021-08-31T00:08:50.384Z"}
{"linkName":"AuchterTurra","type":"SNMP","AP":"","speed":1464843.75,"on":"2021-08-31T00:09:04.201Z"}
{"linkName":"AuchterTurra","type":"SNMP","AP":"","speed":1464843.75,"on":"2021-08-31T00:09:24.708Z"}
{"linkName":"AuchterTurra","type":"SNMP","AP":"","speed":1464843.75,"on":"2021-08-31T00:09:35.858Z"}
{"linkName":"AuchterTurra","type":"SNMP","AP":"","speed":1464843.75,"on":"2021-08-31T00:10:41.810Z"}
{"linkName":"AuchterTurra","type":"SNMP","AP":"","speed":1464843.75,"on":"2021-08-31T00:11:09.920Z"}
{"linkName":"AuchterTurra","type":"SNMP","AP":"","speed":1500000000,"on":"2021-08-31T00:13:42.979Z"}
{"linkName":"AuchterTurra","type":"SNMP","AP":"","speed":1500000000,"on":"2021-08-31T00:14:13.411Z"}
{"linkName":"AuchterTurra","type":"SNMP","AP":"","speed":1500000000,"on":"2021-08-31T00:14:52.148Z"}
{"linkName":"AuchterTurra","type":"SNMP","AP":"","speed":1500000000,"on":"2021-08-31T00:15:35.499Z"}
{"linkName":"AuchterTurra","type":"SNMP","AP":"","speed":1500000000,"on":"2021-08-31T00:25:32.269Z"}
{"linkName":"AuchterTurra","type":"SNMP","AP":"","speed":1500000000,"on":"2021-08-31T00:26:33.091Z"}
{"linkName":"AuchterTurra","type":"SNMP","AP":"","speed":1500000000,"on":"2021-08-31T00:26:45.050Z"}
{"linkName":"AuchterTurra","type":"SNMP","AP":"","speed":1500000000,"on":"2021-08-31T00:27:28.269Z"}
{"linkName":"AuchterTurra","type":"SNMP","AP":"","speed":1500000000,"on":"2021-08-31T00:27:57.101Z"}{"linkName":"AuchterTurra","type":"SNMP","AP":"","speed":1464843.75,"on":"2021-08-31T00:40:43.689Z"}

{"linkName":"AuchterTurra","type":"SNMP","AP":"","speed":1464843.75,"on":"2021-08-31T00:41:21.418Z"}
{"linkName":"AuchterTurra","type":"SNMP","AP":"","speed":1464843.75,"on":"2021-08-31T00:43:01.787Z"}
{"linkName":"AuchterTurra","type":"SNMP","AP":"","speed":1464843.75,"on":"2021-08-31T00:43:21.876Z"}
{"linkName":"AuchterTurra","type":"SNMP","AP":"","speed":1464843.75,"on":"2021-08-31T00:44:47.096Z"}
{"linkName":"AuchterTurra","type":"SNMP","AP":"","speed":1464843.75,"on":"2021-08-31T00:45:14.521Z"}
{"linkName":"AuchterTurra","type":"SNMP","AP":"","speed":1464843.75,"on":"2021-08-31T00:45:50.678Z"}
{"linkName":"AuchterTurra","type":"SNMP","speed":1464843.75,"on":"2021-08-31T00:50:37.734Z"}
{"linkName":"AuchterTurra","type":"SNMP","speed":1464843.75,"on":"2021-08-31T00:51:08.008Z"}
{"linkName":"AuchterTurra","type":"SNMP","speed":1464843.75,"on":"2021-08-31T00:52:32.868Z"}
{"linkName":"AuchterTurra","type":"SNMP","speed":1464843.75,"on":"2021-08-31T00:54:47.119Z"}